…
Fit for all countries.

``` r
## Fit for all countries
pop_fit1 <- gap_reorder %>%
  group_by(country) %>% 
  do(linear_fit(.))
pop_fit1
```

    ## # A tibble: 142 x 3
    ## # Groups:   country [142]
    ##          country intercept      slope
    ##           <fctr>     <dbl>      <dbl>
    ##  1         China 556263528 14614419.1
    ##  2         India 319382421 13881757.0
    ##  3 United States 158463562  2536278.9
    ##  4     Indonesia  73619295  2716492.3
    ##  5        Brazil  52602868  2534882.1
    ##  6      Pakistan  29011582  2351702.0
    ##  7    Bangladesh  38270692  1908534.7
    ##  8       Nigeria  22927507  1846564.0
    ##  9         Japan  89675948   803013.1
    ## 10        Mexico  27345255  1493419.7
    ## # ... with 132 more rows
…
