…
Select data of interest from the Candy Survey. We will look at `id`, `age`, `bubble gum`, `snickers`, `fuzzy peaches`, `kale smoothie`, and `kit kat`, and rename the treats.

``` r
candy_data <- raw_id %>% 
  rename(bubble_gum = "[Bubble Gum]",
         snickers = "[Snickers]",
         fuzzy_peaches = "[Fuzzy Peaches]",
         kale_smoothie = "[Kale smoothie]",
         kit_kat = "[Kit Kat]") %>% 
  dplyr::select(id, age, bubble_gum, snickers, fuzzy_peaches, kale_smoothie, kit_kat)

candy_data
```

    ## # A tibble: 5,351 x 7
    ##       id   age bubble_gum snickers fuzzy_peaches kale_smoothie kit_kat
    ##    <chr> <int>      <chr>    <chr>         <chr>         <chr>   <chr>
    ##  1     1    35    DESPAIR      JOY       DESPAIR          <NA>    <NA>
    ##  2     2    41    DESPAIR      JOY       DESPAIR       DESPAIR     JOY
    ##  3     3    33    DESPAIR      JOY       DESPAIR       DESPAIR     JOY
    ##  4     4    31    DESPAIR      JOY       DESPAIR       DESPAIR     JOY
    ##  5     5    30       <NA>     <NA>           JOY          <NA>    <NA>
    ##  6     6    38    DESPAIR  DESPAIR           JOY       DESPAIR     JOY
    ##  7     7    48    DESPAIR      JOY           JOY       DESPAIR     JOY
    ##  8     8    39       <NA>      JOY           JOY       DESPAIR     JOY
    ##  9    10    54    DESPAIR      JOY       DESPAIR       DESPAIR     JOY
    ## 10    11    40        JOY      JOY           JOY       DESPAIR     JOY
    ## # ... with 5,341 more rows

Clean up the candy data and drop all rows with NA.

``` r
candy_data <- na.omit(candy_data)

candy_data
```

    ## # A tibble: 4,400 x 7
    ##       id   age bubble_gum snickers fuzzy_peaches kale_smoothie kit_kat
    ##    <chr> <int>      <chr>    <chr>         <chr>         <chr>   <chr>
    ##  1     2    41    DESPAIR      JOY       DESPAIR       DESPAIR     JOY
    ##  2     3    33    DESPAIR      JOY       DESPAIR       DESPAIR     JOY
    ##  3     4    31    DESPAIR      JOY       DESPAIR       DESPAIR     JOY
    ##  4     6    38    DESPAIR  DESPAIR           JOY       DESPAIR     JOY
    ##  5     7    48    DESPAIR      JOY           JOY       DESPAIR     JOY
    ##  6    10    54    DESPAIR      JOY       DESPAIR       DESPAIR     JOY
    ##  7    11    40        JOY      JOY           JOY       DESPAIR     JOY
    ##  8    12    38    DESPAIR      JOY       DESPAIR       DESPAIR DESPAIR
    ##  9    16    60        JOY      JOY           JOY       DESPAIR     JOY
    ## 10    17    34    DESPAIR      JOY       DESPAIR       DESPAIR     JOY
    ## # ... with 4,390 more rows
…
